[
  {"country" :"Aruba","lat" :"12.5","lng" :"-69.96666666"},
  {"country" :"Afghanistan","lat" :"33","lng" :"65"},
  {"country" :"Angola","lat" :"-12.5","lng" :"18.5"},
  {"country" :"Anguilla","lat" :"18.25","lng" :"-63.16666666"},
  {"country" :"Åland Islands","lat" :"60.116667","lng" :"19.9"},
  {"country" :"Albania","lat" :"41","lng" :"20"},
  {"country" :"Andorra","lat" :"42.5","lng" :"1.5"},
  {"country" :"United Arab Emirates","lat" :"24","lng" :"54"},
  {"country" :"Argentina","lat" :"-34","lng" :"-64"},
  {"country" :"Armenia","lat" :"40","lng" :"45"},
  {"country" :"American Samoa","lat" :"-14.33333333","lng" :"-170"},
  {"country" :"Antarctica","lat" :"-90","lng" :"0"},
  {"country" :"French Southern and Antarctic Lands","lat" :"-49.25","lng" :"69.167"},
  {"country" :"Antigua and Barbuda","lat" :"17.05","lng" :"-61.8"},
  {"country" :"Australia","lat" :"-27","lng" :"133"},
  {"country" :"Austria","lat" :"47.33333333","lng" :"13.33333333"},
  {"country" :"Azerbaijan","lat" :"40.5","lng" :"47.5"},
  {"country" :"Burundi","lat" :"-3.5","lng" :"30"},
  {"country" :"Belgium","lat" :"50.83333333","lng" :"4"},
  {"country" :"Benin","lat" :"9.5","lng" :"2.25"},
  {"country" :"Burkina Faso","lat" :"13","lng" :"-2"},
  {"country" :"Bangladesh","lat" :"24","lng" :"90"},
  {"country" :"Bulgaria","lat" :"43","lng" :"25"},
  {"country" :"Bahrain","lat" :"26","lng" :"50.55"},
  {"country" :"Bahamas","lat" :"24.25","lng" :"-76"},
  {"country" :"Bosnia and Herzegovina","lat" :"44","lng" :"18"},
  {"country" :"Saint Barthélemy","lat" :"18.5","lng" :"-63.41666666"},
  {"country" :"Belarus","lat" :"53","lng" :"28"},
  {"country" :"Belize","lat" :"17.25","lng" :"-88.75"},
  {"country" :"Bermuda","lat" :"32.33333333","lng" :"-64.75"},
  {"country" :"Bolivia","lat" :"-17","lng" :"-65"},
  {"country" :"Brazil","lat" :"-10","lng" :"-55"},
  {"country" :"Barbados","lat" :"13.16666666","lng" :"-59.53333333"},
  {"country" :"Brunei","lat" :"4.5","lng" :"114.66666666"},
  {"country" :"Bhutan","lat" :"27.5","lng" :"90.5"},
  {"country" :"Bouvet Island","lat" :"-54.43333333","lng" :"3.4"},
  {"country" :"Botswana","lat" :"-22","lng" :"24"},
  {"country" :"Central African Republic","lat" :"7","lng" :"21"},
  {"country" :"Canada","lat" :"60","lng" :"-95"},
  {"country" :"Cocos (Keeling) Islands","lat" :"-12.5","lng" :"96.83333333"},
  {"country" :"Switzerland","lat" :"47","lng" :"8"},
  {"country" :"Chile","lat" :"-30","lng" :"-71"},
  {"country" :"China","lat" :"35","lng" :"105"},
  {"country" :"Ivory Coast","lat" :"8","lng" :"-5"},
  {"country" :"Cameroon","lat" :"6","lng" :"12"},
  {"country" :"DR Congo","lat" :"0","lng" :"25"},
  {"country" :"Republic of the Congo","lat" :"-1","lng" :"15"},
  {"country" :"Cook Islands","lat" :"-21.23333333","lng" :"-159.76666666"},
  {"country" :"Colombia","lat" :"4","lng" :"-72"},
  {"country" :"Comoros","lat" :"-12.16666666","lng" :"44.25"},
  {"country" :"Cape Verde","lat" :"16","lng" :"-24"},
  {"country" :"Costa Rica","lat" :"10","lng" :"-84"},
  {"country" :"Cuba","lat" :"21.5","lng" :"-80"},
  {"country" :"Curaçao","lat" :"12.116667","lng" :"-68.933333"},
  {"country" :"Christmas Island","lat" :"-10.5","lng" :"105.66666666"},
  {"country" :"Cayman Islands","lat" :"19.5","lng" :"-80.5"},
  {"country" :"Cyprus","lat" :"35","lng" :"33"},
  {"country" :"Czech Republic","lat" :"49.75","lng" :"15.5"},
  {"country" :"Germany","lat" :"51","lng" :"9"},
  {"country" :"Djibouti","lat" :"11.5","lng" :"43"},
  {"country" :"Dominica","lat" :"15.41666666","lng" :"-61.33333333"},
  {"country" :"Denmark","lat" :"56","lng" :"10"},
  {"country" :"Dominican Republic","lat" :"19","lng" :"-70.66666666"},
  {"country" :"Algeria","lat" :"28","lng" :"3"},
  {"country" :"Ecuador","lat" :"-2","lng" :"-77.5"},
  {"country" :"Egypt","lat" :"27","lng" :"30"},
  {"country" :"Eritrea","lat" :"15","lng" :"39"},
  {"country" :"Western Sahara","lat" :"24.5","lng" :"-13"},
  {"country" :"Spain","lat" :"40","lng" :"-4"},
  {"country" :"Estonia","lat" :"59","lng" :"26"},
  {"country" :"Ethiopia","lat" :"8","lng" :"38"},
  {"country" :"Finland","lat" :"64","lng" :"26"},
  {"country" :"Fiji","lat" :"-18","lng" :"175"},
  {"country" :"Falkland Islands","lat" :"-51.75","lng" :"-59"},
  {"country" :"France","lat" :"46","lng" :"2"},
  {"country" :"Faroe Islands","lat" :"62","lng" :"-7"},
  {"country" :"Micronesia","lat" :"6.91666666","lng" :"158.25"},
  {"country" :"Gabon","lat" :"-1","lng" :"11.75"},
  {"country" :"United Kingdom","lat" :"54","lng" :"-2"},
  {"country" :"Georgia","lat" :"42","lng" :"43.5"},
  {"country" :"Guernsey","lat" :"49.46666666","lng" :"-2.58333333"},
  {"country" :"Ghana","lat" :"8","lng" :"-2"},
  {"country" :"Gibraltar","lat" :"36.13333333","lng" :"-5.35"},
  {"country" :"Guinea","lat" :"11","lng" :"-10"},
  {"country" :"Guadeloupe","lat" :"16.25","lng" :"-61.583333"},
  {"country" :"Gambia","lat" :"13.46666666","lng" :"-16.56666666"},
  {"country" :"Guinea-Bissau","lat" :"12","lng" :"-15"},
  {"country" :"Equatorial Guinea","lat" :"2","lng" :"10"},
  {"country" :"Greece","lat" :"39","lng" :"22"},
  {"country" :"Grenada","lat" :"12.11666666","lng" :"-61.66666666"},
  {"country" :"Greenland","lat" :"72","lng" :"-40"},
  {"country" :"Guatemala","lat" :"15.5","lng" :"-90.25"},
  {"country" :"French Guiana","lat" :"4","lng" :"-53"},
  {"country" :"Guam","lat" :"13.46666666","lng" :"144.78333333"},
  {"country" :"Guyana","lat" :"5","lng" :"-59"},
  {"country" :"Hong Kong","lat" :"22.267","lng" :"114.188"},
  {"country" :"Heard Island and McDonald Islands","lat" :"-53.1","lng" :"72.51666666"},
  {"country" :"Honduras","lat" :"15","lng" :"-86.5"},
  {"country" :"Croatia","lat" :"45.16666666","lng" :"15.5"},
  {"country" :"Haiti","lat" :"19","lng" :"-72.41666666"},
  {"country" :"Hungary","lat" :"47","lng" :"20"},
  {"country" :"Indonesia","lat" :"-5","lng" :"120"},
  {"country" :"Isle of Man","lat" :"54.25","lng" :"-4.5"},
  {"country" :"India","lat" :"20","lng" :"77"},
  {"country" :"British Indian Ocean Territory","lat" :"-6","lng" :"71.5"},
  {"country" :"Ireland","lat" :"53","lng" :"-8"},
  {"country" :"Iran, Islamic Republic of","lat" :"32","lng" :"53"},
  {"country" :"Iraq","lat" :"33","lng" :"44"},
  {"country" :"Iceland","lat" :"65","lng" :"-18"},
  {"country" :"Israel","lat" :"31.47","lng" :"35.13"},
  {"country" :"Italy","lat" :"42.83333333","lng" :"12.83333333"},
  {"country" :"Jamaica","lat" :"18.25","lng" :"-77.5"},
  {"country" :"Jersey","lat" :"49.25","lng" :"-2.16666666"},
  {"country" :"Jordan","lat" :"31","lng" :"36"},
  {"country" :"Japan","lat" :"36","lng" :"138"},
  {"country" :"Kazakhstan","lat" :"48","lng" :"68"},
  {"country" :"Kenya","lat" :"1","lng" :"38"},
  {"country" :"Kyrgyzstan","lat" :"41","lng" :"75"},
  {"country" :"Cambodia","lat" :"13","lng" :"105"},
  {"country" :"Kiribati","lat" :"1.41666666","lng" :"173"},
  {"country" :"Saint Kitts and Nevis","lat" :"17.33333333","lng" :"-62.75"},
  {"country" :"Korea, Republic of","lat" :"37","lng" :"127.5"},
  {"country" :"Kosovo","lat" :"42.666667","lng" :"21.166667"},
  {"country" :"Kuwait","lat" :"29.5","lng" :"45.75"},
  {"country" :"Laos","lat" :"18","lng" :"105"},
  {"country" :"Lebanon","lat" :"33.83333333","lng" :"35.83333333"},
  {"country" :"Liberia","lat" :"6.5","lng" :"-9.5"},
  {"country" :"Libya","lat" :"25","lng" :"17"},
  {"country" :"Saint Lucia","lat" :"13.88333333","lng" :"-60.96666666"},
  {"country" :"Liechtenstein","lat" :"47.26666666","lng" :"9.53333333"},
  {"country" :"Sri Lanka","lat" :"7","lng" :"81"},
  {"country" :"Lesotho","lat" :"-29.5","lng" :"28.5"},
  {"country" :"Lithuania","lat" :"56","lng" :"24"},
  {"country" :"Luxembourg","lat" :"49.75","lng" :"6.16666666"},
  {"country" :"Latvia","lat" :"57","lng" :"25"},
  {"country" :"Macau","lat" :"22.16666666","lng" :"113.55"},
  {"country" :"Saint Martin","lat" :"18.08333333","lng" :"-63.95"},
  {"country" :"Morocco","lat" :"32","lng" :"-5"},
  {"country" :"Monaco","lat" :"43.73333333","lng" :"7.4"},
  {"country" :"Moldova","lat" :"47","lng" :"29"},
  {"country" :"Madagascar","lat" :"-20","lng" :"47"},
  {"country" :"Maldives","lat" :"3.25","lng" :"73"},
  {"country" :"Mexico","lat" :"23","lng" :"-102"},
  {"country" :"Marshall Islands","lat" :"9","lng" :"168"},
  {"country" :"Macedonia","lat" :"41.83333333","lng" :"22"},
  {"country" :"Mali","lat" :"17","lng" :"-4"},
  {"country" :"Malta","lat" :"35.83333333","lng" :"14.58333333"},
  {"country" :"Myanmar","lat" :"22","lng" :"98"},
  {"country" :"Montenegro","lat" :"42.5","lng" :"19.3"},
  {"country" :"Mongolia","lat" :"46","lng" :"105"},
  {"country" :"Northern Mariana Islands","lat" :"15.2","lng" :"145.75"},
  {"country" :"Mozambique","lat" :"-18.25","lng" :"35"},
  {"country" :"Mauritania","lat" :"20","lng" :"-12"},
  {"country" :"Montserrat","lat" :"16.75","lng" :"-62.2"},
  {"country" :"Martinique","lat" :"14.666667","lng" :"-61"},
  {"country" :"Mauritius","lat" :"-20.28333333","lng" :"57.55"},
  {"country" :"Malawi","lat" :"-13.5","lng" :"34"},
  {"country" :"Malaysia","lat" :"2.5","lng" :"112.5"},
  {"country" :"Mayotte","lat" :"-12.83333333","lng" :"45.16666666"},
  {"country" :"Namibia","lat" :"-22","lng" :"17"},
  {"country" :"New Caledonia","lat" :"-21.5","lng" :"165.5"},
  {"country" :"Niger","lat" :"16","lng" :"8"},
  {"country" :"Norfolk Island","lat" :"-29.03333333","lng" :"167.95"},
  {"country" :"Nigeria","lat" :"10","lng" :"8"},
  {"country" :"Nicaragua","lat" :"13","lng" :"-85"},
  {"country" :"Niue","lat" :"-19.03333333","lng" :"-169.86666666"},
  {"country" :"Netherlands","lat" :"52.5","lng" :"5.75"},
  {"country" :"Norway","lat" :"62","lng" :"10"},
  {"country" :"Nepal","lat" :"28","lng" :"84"},
  {"country" :"Nauru","lat" :"-0.53333333","lng" :"166.91666666"},
  {"country" :"New Zealand","lat" :"-41","lng" :"174"},
  {"country" :"Oman","lat" :"21","lng" :"57"},
  {"country" :"Pakistan","lat" :"30","lng" :"70"},
  {"country" :"Panama","lat" :"9","lng" :"-80"},
  {"country" :"Pitcairn Islands","lat" :"-25.06666666","lng" :"-130.1"},
  {"country" :"Peru","lat" :"-10","lng" :"-76"},
  {"country" :"Philippines","lat" :"13","lng" :"122"},
  {"country" :"Palau","lat" :"7.5","lng" :"134.5"},
  {"country" :"Papua New Guinea","lat" :"-6","lng" :"147"},
  {"country" :"Poland","lat" :"52","lng" :"20"},
  {"country" :"Puerto Rico","lat" :"18.25","lng" :"-66.5"},
  {"country" :"North Korea","lat" :"40","lng" :"127"},
  {"country" :"Portugal","lat" :"39.5","lng" :"-8"},
  {"country" :"Paraguay","lat" :"-23","lng" :"-58"},
  {"country" :"Palestine","lat" :"31.9","lng" :"35.2"},
  {"country" :"French Polynesia","lat" :"-15","lng" :"-140"},
  {"country" :"Qatar","lat" :"25.5","lng" :"51.25"},
  {"country" :"Réunion","lat" :"-21.15","lng" :"55.5"},
  {"country" :"Romania","lat" :"46","lng" :"25"},
  {"country" :"Russian Federation","lat" :"60","lng" :"100"},
  {"country" :"Rwanda","lat" :"-2","lng" :"30"},
  {"country" :"Saudi Arabia","lat" :"25","lng" :"45"},
  {"country" :"Sudan","lat" :"15","lng" :"30"},
  {"country" :"Senegal","lat" :"14","lng" :"-14"},
  {"country" :"Singapore","lat" :"1.36666666","lng" :"103.8"},
  {"country" :"South Georgia","lat" :"-54.5","lng" :"-37"},
  {"country" :"Svalbard and Jan Mayen","lat" :"78","lng" :"20"},
  {"country" :"Solomon Islands","lat" :"-8","lng" :"159"},
  {"country" :"Sierra Leone","lat" :"8.5","lng" :"-11.5"},
  {"country" :"El Salvador","lat" :"13.83333333","lng" :"-88.91666666"},
  {"country" :"San Marino","lat" :"43.76666666","lng" :"12.41666666"},
  {"country" :"Somalia","lat" :"10","lng" :"49"},
  {"country" :"Saint Pierre and Miquelon","lat" :"46.83333333","lng" :"-56.33333333"},
  {"country" :"Serbia","lat" :"44","lng" :"21"},
  {"country" :"South Sudan","lat" :"7","lng" :"30"},
  {"country" :"São Tomé and Príncipe","lat" :"1","lng" :"7"},
  {"country" :"Suriname","lat" :"4","lng" :"-56"},
  {"country" :"Slovakia","lat" :"48.66666666","lng" :"19.5"},
  {"country" :"Slovenia","lat" :"46.11666666","lng" :"14.81666666"},
  {"country" :"Sweden","lat" :"62","lng" :"15"},
  {"country" :"Swaziland","lat" :"-26.5","lng" :"31.5"},
  {"country" :"Sint Maarten","lat" :"18.033333","lng" :"-63.05"},
  {"country" :"Seychelles","lat" :"-4.58333333","lng" :"55.66666666"},
  {"country" :"Syria","lat" :"35","lng" :"38"},
  {"country" :"Turks and Caicos Islands","lat" :"21.75","lng" :"-71.58333333"},
  {"country" :"Chad","lat" :"15","lng" :"19"},
  {"country" :"Togo","lat" :"8","lng" :"1.16666666"},
  {"country" :"Thailand","lat" :"15","lng" :"100"},
  {"country" :"Tajikistan","lat" :"39","lng" :"71"},
  {"country" :"Tokelau","lat" :"-9","lng" :"-172"},
  {"country" :"Turkmenistan","lat" :"40","lng" :"60"},
  {"country" :"Timor-Leste","lat" :"-8.83333333","lng" :"125.91666666"},
  {"country" :"Tonga","lat" :"-20","lng" :"-175"},
  {"country" :"Trinidad and Tobago","lat" :"11","lng" :"-61"},
  {"country" :"Tunisia","lat" :"34","lng" :"9"},
  {"country" :"Turkey","lat" :"39","lng" :"35"},
  {"country" :"Tuvalu","lat" :"-8","lng" :"178"},
  {"country" :"Taiwan","lat" :"23.5","lng" :"121"},
  {"country" :"Tanzania","lat" :"-6","lng" :"35"},
  {"country" :"Uganda","lat" :"1","lng" :"32"},
  {"country" :"Ukraine","lat" :"49","lng" :"32"},
  {"country" :"Uruguay","lat" :"-33","lng" :"-56"},
  {"country" :"United States","lat" :"38","lng" :"-97"},
  {"country" :"Uzbekistan","lat" :"41","lng" :"64"},
  {"country" :"Vatican City","lat" :"41.9","lng" :"12.45"},
  {"country" :"Saint Vincent and the Grenadines","lat" :"13.25","lng" :"-61.2"},
  {"country" :"Venezuela","lat" :"8","lng" :"-66"},
  {"country" :"British Virgin Islands","lat" :"18.431383","lng" :"-64.62305"},
  {"country" :"United States Virgin Islands","lat" :"18.35","lng" :"-64.933333"},
  {"country" :"Vietnam","lat" :"16.16666666","lng" :"107.83333333"},
  {"country" :"Vanuatu","lat" :"-16","lng" :"167"},
  {"country" :"Wallis and Futuna","lat" :"-13.3","lng" :"-176.2"},
  {"country" :"Samoa","lat" :"-13.58333333","lng" :"-172.33333333"},
  {"country" :"Yemen","lat" :"15","lng" :"48"},
  {"country" :"South Africa","lat" :"-29","lng" :"24"},
  {"country" :"Zambia","lat" :"-15","lng" :"30"},
  {"country" :"Zimbabwe","lat" :"-20","lng" :"30"},
  {"country" :"Europe","lat" :"54.5259614","lng" :"15.2551187"}
]